Introduction to Machine Learning in R
…
]

---

# Email spam data

.scrollable[

```r
data(spam, package = "kernlab")
tibble::as_tibble(spam)  # see ?spam for details
## # A tibble: 4,601 x 58
##     make address   all num3d   our  over remove internet order  mail
##  * <dbl>   <dbl> <dbl> <dbl> <dbl> <dbl>  <dbl>    <dbl> <dbl> <dbl>
##  1  0       0.64  0.64     0  0.32  0      0        0     0     0   
##  2  0.21    0.28  0.5      0  0.14  0.28   0.21     0.07  0     0.94
##  3  0.06    0     0.71     0  1.23  0.19   0.19     0.12  0.64  0.25
##  4  0       0     0        0  0.63  0      0.31     0.63  0.31  0.63
##  5  0       0     0        0  0.63  0      0.31     0.63  0.31  0.63
##  6  0       0     0        0  1.85  0      0        1.85  0     0   
##  7  0       0     0        0  1.92  0      0        0     0     0.64
##  8  0       0     0        0  1.88  0      0        1.88  0     0   
##  9  0.15    0     0.46     0  0.61  0      0.3      0     0.92  0.76
## 10  0.06    0.12  0.77     0  0.19  0.32   0.38     0     0.06  0   
## # ... with 4,591 more rows, and 48 more variables: receive <dbl>,
## #   will <dbl>, people <dbl>, report <dbl>, addresses <dbl>, free <dbl>,
## #   business <dbl>, email <dbl>, you <dbl>, credit <dbl>, your <dbl>,
## #   font <dbl>, num000 <dbl>, money <dbl>, hp <dbl>, hpl <dbl>,
## #   george <dbl>, num650 <dbl>, lab <dbl>, labs <dbl>, telnet <dbl>,
## #   num857 <dbl>, data <dbl>, num415 <dbl>, num85 <dbl>, technology <dbl>,
## #   num1999 <dbl>, parts <dbl>, pm <dbl>, direct <dbl>, cs <dbl>,
## #   meeting <dbl>, original <dbl>, project <dbl>, re <dbl>, edu <dbl>,
## #   table <dbl>, conference <dbl>, charSemicolon <dbl>,
…
<img src="intro-ml-r_files/figure-html/spam-tree-diagram-1.svg" width="70%" style="display: block; margin: auto;" />

]

---

# Predicting email spam

.pull-left[

```r
# Extract tibble of variable importance scores
*vip::vi(spam_tree)
## # A tibble: 48 x 2
##    Variable        Importance
##    <chr>                <dbl>
##  1 charExclamation      508. 
##  2 capitalLong          260. 
##  3 capitalAve           199. 
##  4 free                 198. 
##  5 charDollar           195. 
##  6 your                 183. 
##  7 remove               177. 
##  8 all                  127. 
##  9 capitalTotal         108. 
## 10 hp                    74.3
## # ... with 38 more rows
```
…
